%YAML 1.1
%TAG !u! tag:unity3d.com,2011:
--- !u!114 &11400000
MonoBehaviour:
  m_ObjectHideFlags: 0
  m_CorrespondingSourceObject: {fileID: 0}
  m_PrefabInstance: {fileID: 0}
  m_PrefabAsset: {fileID: 0}
  m_GameObject: {fileID: 0}
  m_Enabled: 1
  m_EditorHideFlags: 0
  m_Script: {fileID: 11500000, guid: aaf5ebb02ccbda144a4ad83d7e4f0d05, type: 3}
  m_Name: AkWwiseProjectData
  m_EditorClassIdentifier: 
  AcousticTextureWwu:
  - PhysicalPath: Virtual Acoustics\Default Work Unit.wwu
    ParentPath: Default Work Unit
    guid: 420443996b46b34da546654bd0d62d54
    GuidInternal: 
    m_lastTime: -8586128085139726277
    List: []
  AuxBusWwu:
  - PhysicalPath: Master-Mixer Hierarchy\Default Work Unit.wwu
    ParentPath: Default Work Unit
    guid: 57277b8463c5b249a9d9706f9063ef19
    GuidInternal: 
    m_lastTime: -8586127427872983693
    List:
    - name: Character_locomotion
      guid: 09045ec6d5336946a7142b4b0b495bb8
      id: 3022164222
      PathAndIcons:
      - ElementName: Default Work Unit
        ObjectType: 12
      - ElementName: Master Audio Bus
        ObjectType: 2
      - ElementName: Character_locomotion
        ObjectType: 2
      Path: Default Work Unit\Master Audio Bus\Character_locomotion
    - name: Master Audio Bus
      guid: d8a41415a61d2a41a17e75ca0c2149f3
      id: 3803692087
      PathAndIcons:
      - ElementName: Default Work Unit
        ObjectType: 12
      - ElementName: Master Audio Bus
        ObjectType: 2
      Path: Default Work Unit\Master Audio Bus
  BankWwu:
  - PhysicalPath: SoundBanks\Default Work Unit.wwu
    ParentPath: Default Work Unit
    guid: 63739c867fc3af4baacdb4bee4b1cc9a
    GuidInternal: 
    m_lastTime: -8586127655853603990
    List:
    - name: MasterBank
      guid: f3aabaa33aa7e14082a2547119c31f20
      id: 1542108333
      PathAndIcons:
      - ElementName: Default Work Unit
        ObjectType: 12
      - ElementName: MasterBank
        ObjectType: 7
      Path: Default Work Unit\MasterBank
  EventWwu:
  - PhysicalPath: Events\Default Work Unit.wwu
    ParentPath: Default Work Unit
    guid: d06508287e6af04d9e0fcf52b1550375
    GuidInternal: 
    m_lastTime: -8586124901692961509
    List:
    - name: Ambient
      guid: 0d5f3fd0b4a6594c87cbfd58042bb6ed
      id: 77978275
      PathAndIcons:
      - ElementName: Default Work Unit
        ObjectType: 12
      - ElementName: Ambient
        ObjectType: 4
      - ElementName: Ambient
        ObjectType: 3
      Path: Default Work Unit\Ambient\Ambient
      maxAttenuation: 0
      maxDuration: -1
      minDuration: -1
    - name: ambient_ocean_sound
      guid: 3dcba885908da8458eeaf451dbf19e0d
      id: 2277341620
      PathAndIcons:
      - ElementName: Default Work Unit
        ObjectType: 12
      - ElementName: Ambient
        ObjectType: 4
      - ElementName: ambient_ocean_sound
        ObjectType: 3
      Path: Default Work Unit\Ambient\ambient_ocean_sound
      maxAttenuation: 0
      maxDuration: -1
      minDuration: -1
    - name: ambient_thunder
      guid: dc5115e64e3d2a49ad54d2857ab50288
      id: 3719894632
      PathAndIcons:
      - ElementName: Default Work Unit
        ObjectType: 12
      - ElementName: Ambient
        ObjectType: 4
      - ElementName: ambient_thunder
        ObjectType: 3
      Path: Default Work Unit\Ambient\ambient_thunder
      maxAttenuation: 0
      maxDuration: -1
      minDuration: -1
    - name: ambient_wather_city
      guid: 8155c5a65bf563468b30952319373814
      id: 1926011535
      PathAndIcons:
      - ElementName: Default Work Unit
        ObjectType: 12
      - ElementName: Ambient
        ObjectType: 4
      - ElementName: ambient_wather_city
        ObjectType: 3
      Path: Default Work Unit\Ambient\ambient_wather_city
      maxAttenuation: 0
      maxDuration: -1
      minDuration: -1
    - name: ambient_weather
      guid: 294f6d021dd2734ba842e1fea8c22fd9
      id: 1152562982
      PathAndIcons:
      - ElementName: Default Work Unit
        ObjectType: 12
      - ElementName: Ambient
        ObjectType: 4
      - ElementName: ambient_weather
        ObjectType: 3
      Path: Default Work Unit\Ambient\ambient_weather
      maxAttenuation: 0
      maxDuration: -1
      minDuration: -1
    - name: ambient_wind_trees
      guid: 2147aaf88345024dbbb84a5694ef6ada
      id: 4121333870
      PathAndIcons:
      - ElementName: Default Work Unit
        ObjectType: 12
      - ElementName: Ambient
        ObjectType: 4
      - ElementName: ambient_wind_trees
        ObjectType: 3
      Path: Default Work Unit\Ambient\ambient_wind_trees
      maxAttenuation: 0
      maxDuration: -1
      minDuration: -1
    - name: Character
      guid: 577031bdc6d98145a9749b96a338737b
      id: 436743010
      PathAndIcons:
      - ElementName: Default Work Unit
        ObjectType: 12
      - ElementName: Character
        ObjectType: 4
      - ElementName: Character
        ObjectType: 3
      Path: Default Work Unit\Character\Character
      maxAttenuation: 0
      maxDuration: -1
      minDuration: -1
    - name: character_footsteps
      guid: 3f751b71ff643e44a5df832d030abf06
      id: 2775932802
      PathAndIcons:
      - ElementName: Default Work Unit
        ObjectType: 12
      - ElementName: Character
        ObjectType: 4
      - ElementName: character_footsteps
        ObjectType: 3
      Path: Default Work Unit\Character\character_footsteps
      maxAttenuation: 0
      maxDuration: -1
      minDuration: -1
    - name: character_jumping
      guid: b4ea692ad5e84243a09747d5517cefb3
      id: 3057570747
      PathAndIcons:
      - ElementName: Default Work Unit
        ObjectType: 12
      - ElementName: Character
        ObjectType: 4
      - ElementName: character_jumping
        ObjectType: 3
      Path: Default Work Unit\Character\character_jumping
      maxAttenuation: 0
      maxDuration: -1
      minDuration: -1
    - name: character_landing
      guid: 21c29ff4c7373044b06c2fb8cefd172f
      id: 4274694430
      PathAndIcons:
      - ElementName: Default Work Unit
        ObjectType: 12
      - ElementName: Character
        ObjectType: 4
      - ElementName: character_landing
        ObjectType: 3
      Path: Default Work Unit\Character\character_landing
      maxAttenuation: 0
      maxDuration: -1
      minDuration: -1
    - name: fire_start
      guid: 23f82e65e2482c44bf6b64d8b2a90196
      id: 1712046992
      PathAndIcons:
      - ElementName: Default Work Unit
        ObjectType: 12
      - ElementName: Character
        ObjectType: 4
      - ElementName: fire_start
        ObjectType: 3
      Path: Default Work Unit\Character\fire_start
      maxAttenuation: 0
      maxDuration: -1
      minDuration: -1
    - name: Play_fire_stop
      guid: eccbb65626c6f844b94506f53ad35179
      id: 2736255533
      PathAndIcons:
      - ElementName: Default Work Unit
        ObjectType: 12
      - ElementName: Character
        ObjectType: 4
      - ElementName: Play_fire_stop
        ObjectType: 3
      Path: Default Work Unit\Character\Play_fire_stop
      maxAttenuation: 0
      maxDuration: -1
      minDuration: -1
  RtpcWwu:
  - PhysicalPath: Game Parameters\Default Work Unit.wwu
    ParentPath: Default Work Unit
    guid: 78711a1a26bfc142aff3fd2031d3546f
    GuidInternal: 
    m_lastTime: -8586125601388674110
    List:
    - name: RTPC_ext_camera_height
      guid: b36f3d707533e9448f5d157094a2ebab
      id: 566631840
      PathAndIcons:
      - ElementName: Default Work Unit
        ObjectType: 12
      - ElementName: RTPC_ext_camera_height
        ObjectType: 13
      Path: Default Work Unit\RTPC_ext_camera_height
    - name: RTPC_ext_weather
      guid: d8e225eb24dd43459d5828ead3960d79
      id: 330698749
      PathAndIcons:
      - ElementName: Default Work Unit
        ObjectType: 12
      - ElementName: RTPC_ext_weather
        ObjectType: 13
      Path: Default Work Unit\RTPC_ext_weather
    - name: RTPC_int_azimuth
      guid: 53ad8cc9cc24d64d9c21090e1eddfd0f
      id: 406513959
      PathAndIcons:
      - ElementName: Default Work Unit
        ObjectType: 12
      - ElementName: RTPC_int_azimuth
        ObjectType: 13
      Path: Default Work Unit\RTPC_int_azimuth
    - name: RTPC_int_distance
      guid: 1ae6297b25177849b4cec874a0df5954
      id: 3025684452
      PathAndIcons:
      - ElementName: Default Work Unit
        ObjectType: 12
      - ElementName: RTPC_int_distance
        ObjectType: 13
      Path: Default Work Unit\RTPC_int_distance
  StateWwu:
  - PhysicalPath: States\Default Work Unit.wwu
    ParentPath: Default Work Unit
    guid: ec3f3ba98b99b94093cbc680f7b89137
    GuidInternal: 
    m_lastTime: -8586128085139536146
    List: []
  SwitchWwu:
  - PhysicalPath: Switches\Default Work Unit.wwu
    ParentPath: Default Work Unit
    guid: 8cabd4798e54e64e8a26a980308d4c39
    GuidInternal: 
    m_lastTime: -8586125639823071554
    List:
    - name: gun
      guid: dfd0f14d5b5f134f9ea8f33258d53a9a
      id: 915214409
      PathAndIcons:
      - ElementName: Default Work Unit
        ObjectType: 12
      - ElementName: gun
        ObjectType: 11
      Path: Default Work Unit\gun
      values:
      - name: cocking_handle
        guid: e99011f3baa4374ab7e59d0ba98e1728
        id: 896109900
        PathAndIcons:
        - ElementName: cocking_handle
          ObjectType: 10
      - name: dry_fire
        guid: 3dfe3379297db34791f432847e4e946b
        id: 1682435867
        PathAndIcons:
        - ElementName: dry_fire
          ObjectType: 10
      - name: fire_start
        guid: 45a6de9a65b762418f23bfcd63a7c0dd
        id: 1712046992
        PathAndIcons:
        - ElementName: fire_start
          ObjectType: 10
      - name: fire_stop
        guid: 7798e05493af5047bf12415dfe92f827
        id: 1981293180
        PathAndIcons:
        - ElementName: fire_stop
          ObjectType: 10
      - name: mag_in
        guid: e20ee230e2d0e04a83fa1d6418169eb8
        id: 4041765320
        PathAndIcons:
        - ElementName: mag_in
          ObjectType: 10
      - name: mag_out
        guid: 851b0f3b0daf084c80412d9ee252f6e8
        id: 485474127
        PathAndIcons:
        - ElementName: mag_out
          ObjectType: 10
      - name: safety
        guid: 9bf096bee0278e4382e27e00b77fd184
        id: 374946131
        PathAndIcons:
        - ElementName: safety
          ObjectType: 10
      ValueGuids: []
      ValueIcons: []
      valuesInternal: []
    - name: move_type
      guid: 6258233d43e5cf4f9c1a764654d4378e
      id: 1597344961
      PathAndIcons:
      - ElementName: Default Work Unit
        ObjectType: 12
      - ElementName: move_type
        ObjectType: 11
      Path: Default Work Unit\move_type
      values:
      - name: running
        guid: 75c489739edf0e47ac6a6b278e93fc73
        id: 3863236874
        PathAndIcons:
        - ElementName: running
          ObjectType: 10
      - name: sprinting
        guid: 75df91c6de1c91428dfb5435ee447d0b
        id: 3691594375
        PathAndIcons:
        - ElementName: sprinting
          ObjectType: 10
      ValueGuids: []
      ValueIcons: []
      valuesInternal: []
    - name: surface_type
      guid: 9fd306fa95fae7418f80c0158cd08af4
      id: 4064446173
      PathAndIcons:
      - ElementName: Default Work Unit
        ObjectType: 12
      - ElementName: surface_type
        ObjectType: 11
      Path: Default Work Unit\surface_type
      values:
      - name: Asphalt
        guid: f1160d0e21f01f4b869986a04e13cd4d
        id: 4169408098
        PathAndIcons:
        - ElementName: Asphalt
          ObjectType: 10
      - name: Dirt
        guid: e89476720819b64f84b7de543c41658c
        id: 2195636714
        PathAndIcons:
        - ElementName: Dirt
          ObjectType: 10
      - name: Grass
        guid: 96541bd66feb0745aec9d7564eea3551
        id: 4248645337
        PathAndIcons:
        - ElementName: Grass
          ObjectType: 10
      - name: Metal
        guid: 2b8c4e542bfbce41bdbe78c6a1acc321
        id: 2473969246
        PathAndIcons:
        - ElementName: Metal
          ObjectType: 10
      - name: Stone
        guid: ce1a9c82d452c747819793dd61496e10
        id: 1216965916
        PathAndIcons:
        - ElementName: Stone
          ObjectType: 10
      - name: Water
        guid: ce006730c0dadc438dc73f7cae85c5fe
        id: 2654748154
        PathAndIcons:
        - ElementName: Water
          ObjectType: 10
      - name: Wood
        guid: 682a12bed1669c47b51f7485f5f98eda
        id: 2058049674
        PathAndIcons:
        - ElementName: Wood
          ObjectType: 10
      ValueGuids: []
      ValueIcons: []
      valuesInternal: []
  TriggerWwu:
  - PhysicalPath: Triggers\Default Work Unit.wwu
    ParentPath: Default Work Unit
    guid: d1f15850e7714342b5ca1be729934915
    GuidInternal: 
    m_lastTime: -8586128085139346007
    List: []
  ExpandedItems:
  - /Wwise_examProject_WwiseProject
  - /Wwise_examProject_WwiseProject/Events
  - /Wwise_examProject_WwiseProject/Events/Default Work Unit
  - /Wwise_examProject_WwiseProject/Events/Default Work Unit/Ambient
  - /Wwise_examProject_WwiseProject/SoundBanks
  - /Wwise_examProject_WwiseProject/SoundBanks/Default Work Unit
  autoPopulateEnabled: 1
  CurrentPluginConfig: 
