%YAML 1.1
%TAG !u! tag:unity3d.com,2011:
--- !u!114 &11400000
MonoBehaviour:
  m_ObjectHideFlags: 0
  m_CorrespondingSourceObject: {fileID: 0}
  m_PrefabInstance: {fileID: 0}
  m_PrefabAsset: {fileID: 0}
  m_GameObject: {fileID: 0}
  m_Enabled: 1
  m_EditorHideFlags: 0
  m_Script: {fileID: 11500000, guid: 017ef9ef9dd2f5949ba8742674ba4446, type: 3}
  m_Name: 026D4F29-D21D-4B73-A842-E1FEA8C22FD9
  m_EditorClassIdentifier: 
  objectName: ambient_weather
  id: 1152562982
  guid: 026D4F29-D21D-4B73-A842-E1FEA8C22FD9
